{
  "type": "minecraft:crafting_shaped",
  "pattern": [
    "###",
    "#X#",
    "###"
  ],
  "key": {
    "#": {
      "tag": "skippy:paper"
    },
    "X": {
      "item": "minecraft:compass"
    }
  },
  "result": {
    "item": "minecraft:map"
  }
}