{
  "type": "minecraft:crafting_shapeless",
  "group": "materials",
  "ingredients": [
    {"item": "minecraft:leather"},
    {"tag": "skippy:paper"},
	{"tag": "skippy:paper"},
	{"tag": "skippy:paper"}
  ],
  "result": {
    "item": "minecraft:book"
  }
}
