{
  "type": "minecraft:crafting_shapeless",
  "ingredients": [
    {
      "tag": "skippy:paper"
    },
    {
      "item": "minecraft:creeper_head"
    }
  ],
  "result": {
    "item": "minecraft:creeper_banner_pattern"
  }
}