{
  "type": "minecraft:crafting_shapeless",
  "ingredients": [
    {
      "item": "minecraft:hopper_minecart",
      "remainder": {
        "item": "minecraft:minecart",
        "data": {
          "display": "$ i0.display"
        }
      }
    }
  ],
  "result": {
    "item": "minecraft:hopper"
  }
}
