{
  "type":"crafting_shapeless",
  "group":"dyeing",

  "ingredients":
  [
    {"tag":"glass_colors:not_brown"},
    {"tag":"dyes:brown"}

  ],
  "result": {"item": "minecraft:brown_stained_glass"}
}
