{
  "type":"crafting_shapeless",
  "group":"dyeing",

  "ingredients":
  [
    {"tag":"terracotta_colors:not_brown"},
    {"tag":"dyes:brown"}

  ],
  "result": {"item": "minecraft:brown_terracotta"}
}
