{
  "type":"crafting_shapeless",
  "group":"dyeing",

  "ingredients":
  [
    {"tag":"glazed_terracotta_colors:not_lime"},
    {"tag":"dyes:lime"}

  ],
  "result": {"item": "minecraft:lime_glazed_terracotta"}
}
