{
    "type": "nbtcrafting:brewing",
    "base": {
        "item": "minecraft:golden_apple"
    },
    "ingredient": {
        "item": "minecraft:totem_of_undying",
        "data": {
			"require": {
				"display": {
					"Lore": [ 
					  {
						"$stringify": true,
						"text": "Totem imbued with magic long forgotten. "
					  },
					  {
						"$stringify": true,
						"text": "Has no special properties on its own, "
					  },
					  {
						"$stringify": true,
						"text": "but perhaps it could be used to create "
					  },
					  {
						"$stringify": true,
						"text": "something else entirely... "
					  }
					]
				}
			}
		}
    },
    "result": {
        "item": "minecraft:enchanted_golden_apple",
		"data": {
			"display": {
				"Name": "{\"text\":\"Empowered Golden Apple\"}"
			}
		}
    }
}