{
  "type":"crafting_shapeless",
  "group":"dyeing",

  "ingredients":
  [
    {"tag":"glazed_terracotta_colors:not_pink"},
    {"tag":"dyes:pink"}

  ],
  "result": {"item": "minecraft:pink_glazed_terracotta"}
}
