{
  "type": "minecraft:crafting_shaped",
  "pattern": [
    "A",
    "B"
  ],
  "key": {
    "A": {
      "item": "minecraft:hopper"
    },
    "B": {
      "item": "minecraft:minecart"
    }
  },
  "result": {
    "item": "minecraft:hopper_minecart",
    "data": {
      "display": "$ i1.display"
    }

  }
}
