{
  "type": "minecraft:crafting_shaped",
  "pattern": [
    "##"
  ],
  "key": {
    "#": {
      "item": "minecraft:granite_stairs"
    }
  },
  "result": {
    "item": "minecraft:granite_slab",
    "count": 3
  }
}