{
  "type": "minecraft:crafting_shaped",
  "pattern": [
    "##",
    "##"
  ],
  "key": {
    "#": {
      "item": "mo_glass:lime_stained_glass_stairs"
    }
  },
  "result": {
    "item": "minecraft:lime_stained_glass",
    "count": 3
  }
}