{
  "type":"crafting_shapeless",
  "group":"re_dying",

  "ingredients":
  [
    {"tag":"terracotta_colors:not_black"},
    {"tag":"dyes:black"}

  ],
  "result": {"item": "minecraft:black_terracotta"}
}
