{
  "type": "anvil_crushing_recipes:anvil_crushing",
  "block_ingredient": [
    {"block": "minecraft:bamboo"},
    {"block": "minecraft:pumpkin"},
    {"block": "minecraft:carved_pumpkin"},
    {"block": "minecraft:jack_o_lantern"},
    {"block": "minecraft:melon"},
    {"block": "minecraft:sea_pickle"},
    {"block": "minecraft:brown_mushroom_block"},
    {"block": "minecraft:red_mushroom_block"},
    {"block": "minecraft:mushroom_stem"},
    {"block": "minecraft:lily_pad"},
    {"block": "minecraft:nether_wart_block"},
    {"block": "minecraft:warped_wart_block"}
  ]
}