{
	"pack": {
		"pack_format": 1,
		"description": "Requires 'NBT Crafting'. Lets you brew 3 Totems of Undying with a Potion of Regeneration II to create 3 Empowered Totems of Undying. You can then brew 3 Golden Apples with an Empowered Totem of Undying to Create 3 Empowered Golden Apples. "
	}
}