{
  "type": "anvil_crushing_recipes:anvil_crushing",
  "block_ingredient": [
    {"block": "minecraft:smooth_sandstone"},
    {"block": "minecraft:cut_sandstone"},
    {"block": "minecraft:chiseled_sandstone"}
  ],
  "block_output": "minecraft:sandstone"
}