{
  "type": "anvil_crushing_recipes:anvil_crushing",
  "block_ingredient": [
    {"block": "minecraft:smooth_sandstone_slab"},
    {"block": "minecraft:cut_sandstone_slab"}
  ],
  "block_output": "minecraft:sandstone_slab"
}