{
  "type": "minecraft:crafting_shaped",
  "group": "wooden",
  "pattern": [
    "##",
    "##"

  ],
  "key": {
    "#": {"item": "crimson_stairs"}
  },
  "result": {
    "item": "minecraft:crimson_planks",
    "count": 3

  }
}
