{
  "type": "minecraft:crafting_shaped",
  "pattern": [
    "##",
    "##"

  ],
  "key": {
    "#": {
      "item": "minecraft:prismarine_brick_stairs"
    }
  },
  "result": {
    "item": "minecraft:prismarine_bricks",
    "count": 3

  }
}