{
  "type": "minecraft:crafting_shaped",
  "pattern": [
    "# ",
    "##"
  ],
  "key": {
    "#": {
      "item": "minecraft:polished_blackstone_bricks"
    }
  },
  "result": {
    "item": "minecraft:polished_blackstone_brick_stairs",
    "count": 4
  }
}