{
  "type": "minecraft:crafting_shaped",
  "pattern": [
    "#",
    "#"
  ],
  "key": {
    "#": {
      "item": "mo_glass:red_stained_glass_slab"
    }
  },
  "result": {
    "item": "minecraft:red_stained_glass",
    "count": 1
  }
}