{
  "general": {
    "displayTooltip": true,
    "shiftForDetails": true,
    "displayMode": "HOLD_KEY",
    "hideFromPlayerList": false,
    "hideFromDebug": false,
    "enableTextToSpeech": true,
    "maxHealthForRender": 40,
    "maxHeartsPerLine": 10
  },
  "overlay": {
    "position": {
      "x": 0,
      "y": 0,
      "alignX": "CENTER",
      "alignY": "TOP",
      "anchorX": "CENTER",
      "anchorY": "TOP"
    },
    "scale": 1.0,
    "color": {
      "alpha": 80,
      "themes": [
        {
          "id": "waila:dark",
          "backgroundColor": 1250067,
          "gradientStart": 3684408,
          "gradientEnd": 2368548,
          "fontColor": 10526880
        },
        {
          "id": "waila:vanilla",
          "backgroundColor": 1048592,
          "gradientStart": 5243135,
          "gradientEnd": 2621567,
          "fontColor": 10526880
        }
      ],
      "activeTheme": "waila:vanilla"
    }
  },
  "formatting": {
    "modName": "\\u00A79\\u00A7o%s",
    "blockName": "\\u00A7f%s",
    "fluidName": "\\u00A7f%s",
    "entityName": "\\u00A7f%s",
    "registryName": "\\u00A77[%s]"
  }
}