{
  "type": "minecraft:crafting_shapeless",
  "group": "redstone",
  "ingredients": [
    {"item": "minecraft:bow"},
    {"item": "minecraft:dropper"}
  ],
  "result": {
    "item": "minecraft:dispenser"
  }
}
