{
  "type": "minecraft:crafting_shaped",
  "group": "transportation",
  "pattern": [
    "=#=",
    "==="
  ],
  "key": {
    "#": {"item": "minecraft:tnt"},
    "=": {"item": "minecraft:iron_ingot"}
  },
  "result": {
    "item": "minecraft:tnt_minecart"
  }
}
