{
  "type": "minecraft:crafting_shaped",
  "group": "transportation",
  "pattern": [
    "#=#",
    " = ",
    "#=#"
  ],
  "key": {
    "#": {"item":"minecraft:iron_block"},
    "=": {"tag":"minecraft:planks"}
  },
  "result": {
    "item": "minecraft:rail",
    "count": 96
  }
}
