{
  "type": "minecraft:crafting_shaped",
  "group": "transportation",
  "pattern": [
    "###",
    "#u#",
    "###"
  ],
  "key": {
    "#": {"tag": "minecraft:planks"},
    "u": {"item": "minecraft:minecart"}
  },
  "result": {
    "item": "minecraft:chest_minecart"
  }
}
