{
  "type": "minecraft:crafting_shaped",
  "group": "materials",
  "pattern": [
    "@",
    "@",
    "#"
  ],
  "key": {
    "@": {"tag": "skippy:coal"},
    "#": {"tag": "minecraft:planks"}
  },
  "result": {
    "item": "minecraft:torch",
    "count": 8
  }
}
