{
  "type": "minecraft:crafting_shaped",
  "group": "redstone",
  "pattern": [
    "^ ^",
    "|^|",
    "###"
  ],
  "key": {
    "^": {"item": "minecraft:redstone"},
    "|": {"item": "minecraft:stick"},
    "#": {"item": "minecraft:stone"}
  },
  "result": {
    "item": "minecraft:repeater"
  }
}
