{
  "type":"crafting_shapeless",
  "group":"dyeing",

  "ingredients":
  [
    {"tag":"concrete_colors:not_purple"},
    {"tag":"dyes:purple"}

  ],
  "result": {"item": "minecraft:purple_concrete"}
}
