{
  "type": "minecraft:crafting_shaped",
  "pattern": [
    "##",
    "##"

  ],
  "key": {
    "#": {
      "item": "minecraft:end_stone_brick_stairs"
    }
  },
  "result": {
    "item": "minecraft:end_stone_bricks",
    "count": 3
  }
}