{
  "type": "minecraft:crafting_shaped",
  "pattern": [
    "##",
    "##"

  ],
  "key": {
    "#": {
      "item": "minecraft:mossy_cobblestone_stairs"
    }
  },
  "result": {
    "item": "minecraft:mossy_cobblestone",
    "count": 3
  }
}