{
  "type":"crafting_shaped",
  "group":"dyeing",

  "pattern":
  [
      "III",
      "IDI",
      "III"
  ],
  "key":
  {
    "I": {"tag":"terracotta_colors:not_pink"},
    "D": {"tag":"dyes:pink"}
  },
  "result":
  {
    "item": "minecraft:pink_terracotta",
    "count": 8
  }
}
