{
  "type":"crafting_shapeless",
  "group":"dyeing",

  "ingredients":
  [
    {"tag":"glass_pane_colors:not_gray"},
    {"tag":"dyes:gray"}

  ],
  "result": {"item": "minecraft:gray_stained_glass_pane"}
}
