{
  "type":"crafting_shapeless",
  "group":"dyeing",

  "ingredients":
  [
    {"tag":"glass_pane_colors:not_pink"},
    {"tag":"dyes:pink"}

  ],
  "result": {"item": "minecraft:pink_stained_glass_pane"}
}
