{
	"parent": "block/cube_all",
	"textures": {
		"all": "block/note_block",
        "overlay": "block/note_block/dark"
	},
	"elements": [
		{
			"from": [2, 5, -0.01],
			"to": [14, 6, -0.01],
			"faces": {
				"north": {"texture": "#overlay", "cullface": "north"}
			}
		},
        {
			"from": [2, 5, 16.01],
			"to": [14, 6, 16.01],
			"faces": {
				"south": {"texture": "#overlay", "cullface": "south"}
			}
		},
        {
			"from": [16.01, 5, 2],
			"to": [16.01, 6, 14],
			"faces": {
                "east": {"texture": "#overlay", "cullface": "east"}
			}
		},
        {
			"from": [-0.01, 5, 2],
			"to": [-0.01, 6, 14],
			"faces": {
				"west": {"texture": "#overlay", "cullface": "west"}
			}
		}
	]
}