{
  "type":"crafting_shapeless",
  "group":"dyeing",

  "ingredients":
  [
    {"tag":"glass_pane_colors:not_cyan"},
    {"tag":"dyes:cyan"}

  ],
  "result": {"item": "minecraft:cyan_stained_glass_pane"}
}
