{
	"credit": "Made with Blockbench",
	"textures": {
		"2": "block/acacia_trapdoor",
		"3": "block/acacia_trapdoor_sides",
		"particle": "#2"
	},
	"elements": [
		{
			"from": [0, 13, 0],
			"to": [3, 16, 16],
			"faces": {
				"north": {"uv": [3, 0, 0, 3], "texture": "#3", "cullface": "north"},
				"east": {"uv": [0, 3, 16, 6], "texture": "#3"},
				"south": {"uv": [0, 0, 3, 3], "texture": "#3", "cullface": "south"},
				"west": {"uv": [0, 3, 16, 6], "texture": "#3", "cullface": "west"},
				"up": {"uv": [0, 16, 3, 0], "texture": "#2", "cullface": "up"},
				"down": {"uv": [0, 0, 3, 16], "texture": "#2"}
			}
		},
		{
			"from": [13, 13, 0],
			"to": [16, 16, 16],
			"faces": {
				"north": {"uv": [16, 0, 13, 3], "texture": "#3", "cullface": "north"},
				"east": {"uv": [0, 3, 16, 6], "texture": "#3", "cullface": "east"},
				"south": {"uv": [13, 0, 16, 3], "texture": "#3", "cullface": "south"},
				"west": {"uv": [0, 3, 16, 6], "texture": "#3"},
				"up": {"uv": [13, 16, 16, 0], "texture": "#2", "cullface": "up"},
				"down": {"uv": [13, 0, 16, 16], "texture": "#2"}
			}
		},
		{
			"from": [9, 13, 3],
			"to": [11, 16, 13],
			"faces": {
				"east": {"uv": [3, 3, 13, 6], "texture": "#3"},
				"west": {"uv": [3, 3, 13, 6], "texture": "#3"},
				"up": {"uv": [9, 13, 11, 3], "texture": "#2", "cullface": "up"},
				"down": {"uv": [9, 3, 11, 13], "texture": "#2"}
			}
		},
		{
			"from": [5, 13, 3],
			"to": [7, 16, 13],
			"faces": {
				"east": {"uv": [3, 3, 13, 6], "texture": "#3"},
				"west": {"uv": [3, 3, 13, 6], "texture": "#3"},
				"up": {"uv": [5, 13, 7, 3], "texture": "#2", "cullface": "up"},
				"down": {"uv": [5, 3, 7, 13], "texture": "#2"}
			}
		},
		{
			"from": [3, 13, 0],
			"to": [13, 16, 3],
			"faces": {
				"north": {"uv": [13, 0, 3, 3], "texture": "#3", "cullface": "north"},
				"south": {"uv": [3, 0, 13, 3], "texture": "#3"},
				"up": {"uv": [3, 16, 13, 13], "texture": "#2", "cullface": "up"},
				"down": {"uv": [3, 13, 13, 16], "texture": "#2"}
			}
		},
		{
			"from": [3, 13, 13],
			"to": [13, 16, 16],
			"faces": {
				"north": {"uv": [13, 0, 3, 3], "texture": "#3"},
				"south": {"uv": [3, 0, 13, 3], "texture": "#3", "cullface": "south"},
				"up": {"uv": [3, 3, 13, 0], "texture": "#2", "cullface": "up"},
				"down": {"uv": [3, 0, 13, 3], "texture": "#2"}
			}
		}
	]
}