{
  "parent": "minecraft:block/door_bottom",
  "textures": {
    "bottomright": "minecraft:block/dark_oak_door_bottom2",
    "bottom": "minecraft:block/dark_oak_door_bottom",
	"side": "minecraft:block/dark_oak_door_sides"
  }
}