{
  "parent": "minecraft:block/door_bottom_rh",
  "textures": {
    "bottom": "minecraft:block/spruce_door_bottom2",
	"side": "minecraft:block/spruce_door_sides",
	"bottomright": "minecraft:block/spruce_door_bottom"
  }
}