{
  "parent": "minecraft:block/door_bottom",
  "textures": {
    "bottom": "minecraft:block/spruce_door_bottom",
	"side": "minecraft:block/spruce_door_sides",
	"bottomright": "minecraft:block/spruce_door_bottom2"
  }
}