{
  "type":"crafting_shaped",
  "group":"dyeing",

  "pattern":
  [
      "III",
      "IDI",
      "III"
  ],
  "key":
  {
    "I": {"tag":"glazed_terracotta_colors:not_black"},
    "D": {"tag":"dyes:black"}
  },
  "result":
  {
    "item": "minecraft:black_glazed_terracotta",
    "count": 8
  }
}
