{
  "type": "minecraft:crafting_shapeless",
  "group": "materials",
  "ingredients": [
    {"tag":"skippy:paper"},
    {"tag":"skippy:paper"},
    {"tag":"skippy:paper"},
    {"item": "minecraft:ink_sac"},
    {"item": "minecraft:leather"},
    {"item": "minecraft:feather"}
  ],
  "result": {
    "item": "minecraft:writtable_book"
  }
}
