{
  "type": "minecraft:crafting_shaped",
  "group": "redstone",
  "pattern": [
    "##",
    "##",
    "##"
  ],
  "key": {
    "#": {"item":"minecraft:iron_block"}
  },
  "result": {
    "item": "minecraft:iron_door",
    "count": 27
  }
}
