{
  "type": "minecraft:crafting_shaped",
  "group": "signs",
  "pattern": [
    "###",
    "###",
    " # "
  ],
  "key": {
    "#": {"item": "minecraft:jungle_planks"}
  },
  "result": {
    "item": "minecraft:jungle_sign",
    "count": 7
  }
}
