{
  "type": "minecraft:crafting_shaped",
  "group": "transportation",
  "pattern": [
    " = ",
    " / ",
    "#+#"
  ],
  "key": {
    "/": {"item": "minecraft:stick"},
    "=": {"item": "minecraft:iron_ingot"},
    "#": {"tag": "minecraft:logs"},
    "+": {"tag": "minecraft:planks"}
  },
  "result": {
    "item": "minecraft:trapped_chest"
  }
}
