{
  "type": "minecraft:crafting_shaped",
  "group": "work_stations",
  "pattern": [
    " = ",
    "###"
  ],
  "key": {
    "#": {"tag": "minecraft:planks"},
    "=": {"item": "minecraft:stone_slab"}
  },
  "result": {
    "item": "minecraft:grindstone"
  }
}
