{
  "type": "minecraft:crafting_shaped",
  "group": "work_stations",
  "pattern": [
    "=",
    "#",
    "="
  ],
  "key": {
    "=": {"tag": "minecraft:planks"},
    "#": {"item": "minecraft:bookshelf"}
  },
  "result": {
    "item": "minecraft:lecturn"
  }
}
