{
  "type":"crafting_shapeless",
  "group":"dyeing",

  "ingredients":
  [
    {"tag":"concrete_powder_colors:not_lime"},
    {"tag":"dyes:lime"}

  ],
  "result": {"item": "minecraft:lime_concrete_powder"}
}
