{
  "type": "minecraft:crafting_shaped",
  "group": "signs",
  "pattern": [
    "###",
    "###",
    " # "
  ],
  "key": {
    "#": {"tag": "minecraft:warped_stems"}
  },
  "result": {
    "item": "minecraft:warped_sign",
    "count": 28
  }
}