{
  "type": "anvil_crushing_recipes:anvil_crushing",
  "block_ingredient": [
    {"block": "minecraft:infested_stone_bricks"},
    {"block": "minecraft:infested_mossy_stone_bricks"},
    {"block": "minecraft:infested_chiseled_stone_bricks"}
  ],
  "block_output": "minecraft:infested_cracked_stone_bricks"
}