{
	"rewards": {
		"function": "killfeed:shot/illager/pillager"
	},
	"criteria": {
		"kill": {
			"trigger": "minecraft:player_killed_entity",
			"conditions": {
				"entity": {
					"type": "pillager",
					"equipment": {
						"head": {
							"item": "minecraft:air"
						}
					}
				},
				"killing_blow": {
					"is_projectile": "true"
				}
			}
		}
	}
}