{
  "type":"crafting_shapeless",
  "group":"dyeing",

  "ingredients":
  [
    {"tag":"glass_pane_colors:not_red"},
    {"tag":"dyes:red"}

  ],
  "result": {"item": "minecraft:red_stained_glass_pane"}
}
