{
  "values":
  [

    "minecraft:orange_wool",
    "minecraft:yellow_wool",
    "minecraft:lime_wool",
    "minecraft:green_wool",
    "minecraft:cyan_wool",
    "minecraft:light_blue_wool",
    "minecraft:blue_wool",
    "minecraft:purple_wool",
    "minecraft:magenta_wool",
    "minecraft:pink_wool",
    "minecraft:white_wool",
    "minecraft:light_gray_wool",
    "minecraft:gray_wool",
    "minecraft:black_wool",
    "minecraft:brown_wool"
  ]
}
