{
  "type": "minecraft:crafting_shaped",
  "group": "wooden",
  "pattern": [
    "#",
    "#"

  ],
  "key": {
    "#": {"item": "acacia_slab"}
  },
  "result": {
    "item": "minecraft:acacia_planks"

  }
}
