{
  "type": "minecraft:crafting_shaped",
  "group": "stained_glass",
  "pattern": [
    "###",
    "#X#",
    "###"
  ],
  "key": {
    "#": {
      "item": "minecraft:glass"
    },
    "X": {
      "item": "minecraft:cyan_dye"
    }
  },
  "result": {
    "item": "air"

  }
}