{
  "type": "minecraft:crafting_shapeless",
  "group": "wool",
  "ingredients": [
    {
      "item": "minecraft:gray_dye"
    },
    {
      "item": "minecraft:white_wool"
    }
  ],
  "result": {
    "item": "air"
  }
}