{
  "type": "minecraft:crafting_shapeless",
  "group": "dyed_bed",
  "ingredients": [
    {
      "item": "minecraft:white_bed"
    },
    {
      "item": "minecraft:red_dye"
    }
  ],
  "result": {
    "item": "air"
  }
}