{
  "type": "minecraft:crafting_shapeless",
  "group": "concrete_powder",
  "ingredients": [
    {
      "item": "minecraft:white_dye"
    },
    {
      "item": "minecraft:sand"
    },
    {
      "item": "minecraft:sand"
    },
    {
      "item": "minecraft:sand"
    },
    {
      "item": "minecraft:sand"
    },
    {
      "item": "minecraft:gravel"
    },
    {
      "item": "minecraft:gravel"
    },
    {
      "item": "minecraft:gravel"
    },
    {
      "item": "minecraft:gravel"
    }
  ],
  "result": {
    "item": "air"

  }
}