{
  "rewards": {
    "function": "killfeed:shot/villagers/1/weaponsmith"
  },
  "criteria": {
    "kill": {
      "trigger": "minecraft:player_killed_entity",
      "conditions": {
        "entity": {
          "type": "villager",
          "nbt": "{VillagerData:{profession:'minecraft:weaponsmith',level: 1}}"
        },
        "killing_blow": {
          "is_projectile": "true"
        }
      }
    }
  }
}