{
  "type":"crafting_shapeless",
  "group":"dyeing",

  "ingredients":
  [
    {"tag":"shulker_box_colors:not_cyan"},
    {"tag":"dyes:cyan"}

  ],
  "result": {
    "item": "minecraft:cyan_shulker_box",
    "data": {"$": "$ i0"}
  }
}
