{
  "type":"crafting_shapeless",
  "group":"dyeing",

  "ingredients":
  [
    {"tag":"shulker_box_colors:not_lime"},
    {"tag":"dyes:lime"}

  ],
  "result": {
    "item": "minecraft:lime_shulker_box",
    "data": {"$": "$ i0"}
  }
}
