{
  "type":"crafting_shapeless",
  "group":"dyeing",

  "ingredients":
  [
    {"tag":"shulker_box_colors:not_purple"},
    {"tag":"dyes:purple"}

  ],
  "result": {
    "item": "minecraft:purple_shulker_box",
    "data": {"$": "$ i0"}
  }
}
