{
  "type":"crafting_shapeless",
  "group":"concrete_powder",

  "ingredients":
  [
    {"item": "minecraft:sand"},
    {"item": "minecraft:sand"},
    {"item": "minecraft:sand"},
    {"item": "minecraft:sand"},
    {"tag":"dyes:green"},
    {"item": "minecraft:gravel"},
    {"item": "minecraft:gravel"},
    {"item": "minecraft:gravel"},
    {"item": "minecraft:gravel"}
  ],
  "result":
  {
    "item": "minecraft:green_concrete_powder",
    "count": 8
  }
}
