{
  "type":"crafting_shapeless",
  "group":"dyeing",

  "ingredients":
  [
    {"tag":"glazed_terracotta_colors:not_black"},
    {"tag":"dyes:black"}

  ],
  "result": {"item": "minecraft:black_glazed_terracotta"}
}
